3.700782692694663751e+02
9.911654082536697885e+00
6.618183249235153554e+00
5.069620765447616861e+00
4.202038152813911687e+00
3.753111562430858417e+00
3.507753139436244894e+00
3.321791496872902094e+00
3.209713952839374329e+00
3.106793491840362353e+00
3.064683749675750857e+00
3.003350677192210938e+00
3.017158578038215744e+00
2.953849019706249024e+00
2.942093182802200335e+00
2.914893873035907745e+00
2.916173386573791326e+00
2.832692658305168365e+00
2.834800817072391510e+00
2.801603783369064349e+00
2.512533356249332606e+00
2.446975021064281552e+00
2.441438810825347971e+00
2.420239576399326520e+00
2.317944793403148740e+00
2.241762456893920952e+00
2.247917160391807556e+00
2.212132917344570071e+00
2.205487496107816803e+00
2.197828491106629478e+00
2.161432603895664162e+00
2.101276368051767207e+00
2.083491999208927137e+00
2.084782599806785708e+00
2.070571450293064331e+00
2.037150301933288610e+00
2.028603591024875641e+00
1.992712366878986341e+00
1.994716440141200975e+00
1.994340881705284119e+00
