2.502912561035156216e+02
2.730438697814941307e+01
1.746611972808837976e+01
1.543065147399902415e+01
1.426471742630004869e+01
1.360031002998352001e+01
1.245430427551269581e+01
1.162622659683227511e+01
1.084172740936279311e+01
1.031013189315795842e+01
9.732916622161864595e+00
9.424562454223632812e+00
8.975289411544800089e+00
8.690987625122069460e+00
8.438021535873412304e+00
8.221927652359008576e+00
8.012470469474791912e+00
7.885348076820373642e+00
7.759379367828369567e+00
7.554652886390686106e+00
7.549494872093200470e+00
7.467020964622497203e+00
7.368705282211303498e+00
7.179344878196716628e+00
7.248235173225403116e+00
7.129897842407226349e+00
7.064978847503661896e+00
7.005263438224792694e+00
6.921688342094421742e+00
6.685160040855407715e+00
6.630802483558654536e+00
6.556977801322936728e+00
6.574541091918945312e+00
6.431772999763488485e+00
6.466771969795226838e+00
6.497120628356933381e+00
6.374737277030944504e+00
6.399305009841919301e+00
6.332065114974975373e+00
6.341400699615478587e+00
6.340122127532959340e+00
6.186659255027771032e+00
6.121702413558960387e+00
6.120033726692200027e+00
6.072099499702453329e+00
6.017342314720154128e+00
6.071161832809448100e+00
5.901637597084045339e+00
5.909993414878845108e+00
5.857338643074035289e+00
