5.413323646545410384e+01
2.057061981201171719e+01
4.445051498413086222e+01
1.713993221282958856e+01
3.742570114135742188e+01
1.474835063934326129e+01
1.360666936874389599e+01
1.245530733108520494e+01
1.220340204238891602e+01
1.154936416625976570e+01
1.114045959472656300e+01
1.088953115463256793e+01
1.059278617858886662e+01
1.063953523635864329e+01
1.089938894271850600e+01
9.653472957611084482e+00
1.010558208465576158e+01
9.378869724273680930e+00
9.421154785156250711e+00
9.359234733581542898e+00
9.678452339172363139e+00
9.568468551635742614e+00
8.944023027420044514e+00
9.490201129913330647e+00
9.229497785568236523e+00
9.218462514877320046e+00
8.799479799270629954e+00
8.466172285079956339e+00
8.850685377120971253e+00
8.523051834106444957e+00
8.577315835952758150e+00
8.881089086532591992e+00
8.760672912597655682e+00
8.423441677093505220e+00
8.431004686355590749e+00
8.390041646957397958e+00
8.255563554763794443e+00
8.220107803344726349e+00
8.652503738403320099e+00
8.562997074127197905e+00
8.472485294342041229e+00
8.049943275451660440e+00
8.112613048553466655e+00
8.174686918258666779e+00
8.129816503524780913e+00
7.937439212799072052e+00
8.046318559646605806e+00
8.060730981826782937e+00
7.953787727355956960e+00
7.959554271697998118e+00
