4.761389424133300849e+02
3.429254070281982081e+01
1.872651554107666172e+01
1.678227764129638544e+01
1.559161077499389592e+01
1.450500421524047923e+01
1.352397223472595300e+01
1.284270876884460399e+01
1.211440955162048283e+01
1.162361077308654700e+01
1.129059547424316357e+01
1.075607992172241190e+01
1.030875742912292559e+01
1.000047481536865313e+01
9.825833454132080647e+00
9.613535461425781747e+00
9.419130182266234996e+00
9.247747364044188956e+00
9.153782176971436257e+00
8.954069004058837322e+00
8.883724188804626110e+00
8.710251779556275054e+00
8.590232329368591380e+00
8.733459353446960449e+00
8.515050415992737598e+00
8.485162968635558300e+00
8.133845314979552654e+00
8.074305825233459188e+00
8.047470040321350382e+00
7.985146908760071049e+00
7.932385425567627379e+00
7.962500119209289906e+00
7.831838803291320872e+00
7.785506038665771733e+00
7.800701880455017445e+00
7.822102336883545171e+00
7.742581367492675781e+00
7.558210811614990199e+00
7.510887155532836701e+00
7.474592580795287766e+00
7.455606422424316371e+00
7.472940092086791886e+00
7.413975954055786133e+00
7.464587812423705948e+00
7.460589704513549414e+00
7.330302100181580016e+00
7.394600934982300089e+00
7.286115412712097061e+00
7.293347287178039373e+00
7.316871275901794647e+00
