4.726350479125976278e+01
1.948702690124511605e+01
3.557509719848632557e+01
2.122007499694824162e+01
1.495532421112060462e+01
1.470085596084594748e+01
1.349186061859130881e+01
1.422091939926147397e+01
1.331393869400024421e+01
1.227047008514404247e+01
1.069918121337890682e+01
1.038330135345458949e+01
1.012273292541503977e+01
1.016520545959472699e+01
9.578269519805907350e+00
9.587664985656738637e+00
9.419258899688720987e+00
9.328203659057617614e+00
9.042125072479247905e+00
9.069174556732177095e+00
9.135438194274902557e+00
9.252818479537964436e+00
8.796909923553466015e+00
8.481620445251465412e+00
8.950536413192748952e+00
8.543476762771605948e+00
8.406143951416016336e+00
8.626159400939942046e+00
8.370998458862304759e+00
8.339408397674560547e+00
8.427474050521849946e+00
8.417354478836060139e+00
8.422236680984497070e+00
8.195900354385376119e+00
8.213340320587157350e+00
8.131040401458740519e+00
8.138434476852417276e+00
8.129933633804320436e+00
7.931075553894043395e+00
8.225597991943359943e+00
8.119754848480225107e+00
8.147779874801635458e+00
7.931262969970703125e+00
7.985294828414916779e+00
8.079490966796875284e+00
7.905397653579711914e+00
7.890098209381103622e+00
7.813292751312255646e+00
7.862916622161865376e+00
7.722474813461303711e+00
