2.705616918182373070e+02
2.792845170974731417e+01
1.839926038742065373e+01
1.689777494430542149e+01
1.565503451347351138e+01
1.454752358436584458e+01
1.361291218757629373e+01
1.280917352676391552e+01
1.199983971595764132e+01
1.133865883827209409e+01
1.087611063003540046e+01
1.046684148788452084e+01
9.990681333541870046e+00
9.710790548324585103e+00
9.498103733062743359e+00
9.278225078582764240e+00
9.041882843971253081e+00
8.794804291725158762e+00
8.783465871810912873e+00
8.644667091369628409e+00
8.565542917251587340e+00
8.497506365776061443e+00
8.369213781356812376e+00
8.309839096069335795e+00
8.209046092033386088e+00
8.120170617103577015e+00
7.841449217796325755e+00
7.742594494819640794e+00
7.725656104087829767e+00
7.611893367767334162e+00
7.641373248100280513e+00
7.574974703788757147e+00
7.580605015754700027e+00
7.429040513038635218e+00
7.403480739593505611e+00
7.363154659271240021e+00
7.284165039062499680e+00
7.292521948814392196e+00
7.266646771430969487e+00
7.238029708862304901e+00
7.201355996131897363e+00
7.183455653190613077e+00
7.101218638420104590e+00
7.185594286918639995e+00
7.053887300491332724e+00
6.970415072441101145e+00
6.965416007041930868e+00
6.962700066566466894e+00
6.917295112609862962e+00
6.925958828926086497e+00
