D:/data-shared/polygons-generated-random3/img_10.png 169.66681,201.39812,295.5384,326.3863,2 91.53522,37.124664,232.87206,203.40446,3 208.78575,52.642525,383.31564,215.96313,3 
D:/data-shared/polygons-generated-random3/img_10006.png 113.717026,92.65363,238.60506,169.56683,0 93.69798,234.36807,173.33548,313.26437,2 174.85126,135.19559,339.37387,300.8229,3 
D:/data-shared/polygons-generated-random3/img_1001.png 143.28539,161.13509,278.85776,296.5798,1 281.79962,277.63675,366.33658,362.24817,1 210.73369,14.716118,363.76358,158.82474,3 64.15926,272.60547,192.47614,373.72983,4 119.07824,120.45326,227.91666,163.20363,4 
D:/data-shared/polygons-generated-random3/img_10010.png 169.31633,79.99771,356.98077,219.06032,0 105.16849,244.67984,237.6528,300.12845,0 74.61136,66.87942,154.46559,146.41988,2 235.51462,235.1469,352.24335,351.00452,2 
D:/data-shared/polygons-generated-random3/img_10011.png 122.36441,52.62818,374.05197,292.63696,3 1.1581869,248.23506,158.94205,393.85208,3 
D:/data-shared/polygons-generated-random3/img_10015.png 272.12894,135.90665,402.63193,184.38766,0 80.748566,16.946148,245.51616,291.94464,0 94.36348,68.585434,232.50032,293.90384,0 260.77002,190.28975,357.27432,287.16736,1 
D:/data-shared/polygons-generated-random3/img_10016.png 116.02174,213.43065,274.53314,333.35318,0 132.90657,216.40048,255.14038,319.59003,0 84.456184,72.07534,210.32828,199.84691,1 231.80959,53.504166,410.21616,236.18205,3 
D:/data-shared/polygons-generated-random3/img_10021.png 235.23918,221.45525,370.1421,295.70398,0 104.46475,155.30728,234.03566,284.64246,1 76.104195,56.07501,198.53348,182.43895,4 151.2981,289.1896,243.77393,356.04224,4 214.1677,105.181305,343.4699,217.93701,4 
D:/data-shared/polygons-generated-random3/img_10023.png 134.10698,203.15346,256.77188,297.06577,0 206.36337,81.01099,319.16336,194.00623,2 36.81843,25.830696,211.53934,193.3331,3 263.85635,193.1358,404.72583,299.3051,4 55.414234,240.24327,194.01915,355.98117,4 133.0631,205.46297,250.75203,290.40662,4 
D:/data-shared/polygons-generated-random3/img_10024.png 135.9142,133.23083,219.30403,216.25037,2 207.04659,168.17255,317.28217,277.52313,2 251.96509,61.04318,410.24884,168.3826,4 186.21494,287.73773,306.88617,364.31573,4 65.63116,242.1626,207.29832,334.27307,4 
D:/data-shared/polygons-generated-random3/img_10025.png 
D:/data-shared/polygons-generated-random3/img_10026.png 228.78882,19.980736,356.24445,179.55478,0 106.85252,73.61673,217.30478,184.0222,1 183.94539,205.3128,312.16855,332.4801,1 83.84501,214.53395,187.68481,318.37616,2 
D:/data-shared/polygons-generated-random3/img_10028.png 248.94281,220.71904,392.71643,302.93613,4 67.46113,132.71576,269.56982,248.00436,4 281.29468,41.076057,411.58832,234.21289,4 
D:/data-shared/polygons-generated-random3/img_10034.png 240.7897,18.482529,403.87503,172.88045,3 26.491486,87.43306,314.53683,356.9015,3 
D:/data-shared/polygons-generated-random3/img_10040.png 154.72426,160.70251,248.02515,300.0488,0 246.74236,266.6961,374.77298,315.86252,0 63.953392,216.85944,147.26521,299.95532,2 64.78106,90.44882,157.45299,183.38406,2 246.23598,5.091434,408.10397,159.17366,3 300.84186,163.32103,412.35892,249.31833,4 
D:/data-shared/polygons-generated-random3/img_10046.png 228.5487,258.92462,338.90366,335.38617,0 72.05263,157.38359,181.98138,268.13675,1 179.45494,130.82251,284.26263,235.99083,2 93.512146,289.1886,218.04298,381.53174,4 95.35147,3.3881173,244.6681,144.83202,4 
D:/data-shared/polygons-generated-random3/img_10048.png 62.341175,80.22248,177.74422,197.9388,1 157.38919,19.987064,324.3035,185.81683,3 205.4377,177.0376,402.68814,361.17258,3 
D:/data-shared/polygons-generated-random3/img_10053.png 156.39157,212.03146,303.6833,293.90076,0 134.59476,122.32802,221.32365,207.84885,2 194.1445,67.311005,321.34097,174.19267,4 11.64025,72.86285,191.0662,140.5276,4 
D:/data-shared/polygons-generated-random3/img_1006.png 148.05157,98.311615,306.00757,216.78084,0 143.56787,229.2408,286.08664,331.1236,4 241.51704,227.66905,404.3417,309.14316,4 
D:/data-shared/polygons-generated-random3/img_10065.png 81.04172,226.80042,199.04489,344.83688,1 203.40552,122.47479,324.67075,245.49649,1 192.07993,271.14478,278.38406,356.90485,2 104.55286,79.1155,185.32591,160.1531,2 
D:/data-shared/polygons-generated-random3/img_10066.png 197.111,218.75523,309.36395,333.18008,1 117.96552,111.71291,237.66507,230.8403,2 218.83258,71.374695,330.70456,183.15417,2 296.21344,176.78944,411.77206,244.61722,4 
D:/data-shared/polygons-generated-random3/img_10069.png 78.86635,103.171684,211.67656,236.57375,1 88.25646,245.74736,170.84608,327.72018,2 253.50983,130.09163,338.38904,214.37349,2 254.98163,255.08087,399.80957,351.15964,4 
D:/data-shared/polygons-generated-random3/img_1007.png 163.99619,77.58312,277.53958,190.84532,2 152.77254,226.81381,276.8537,349.58307,2 5.2301836,183.38116,170.94238,338.62762,3 236.26537,174.9786,401.56757,307.3811,4 
D:/data-shared/polygons-generated-random3/img_10074.png 176.44313,51.332306,321.50806,233.14172,0 69.53062,47.914173,160.69461,138.08766,2 
D:/data-shared/polygons-generated-random3/img_10081.png 212.86552,198.09503,295.55576,280.02045,2 80.68211,94.85112,210.06648,224.57143,2 35.17504,229.49043,180.88484,398.73444,3 246.08127,44.760963,374.76578,176.97025,4 
D:/data-shared/polygons-generated-random3/img_10087.png 167.04478,95.15145,308.2883,235.6089,2 14.603249,44.156925,183.68565,213.08662,3 107.93096,238.50351,277.59503,372.88458,4 
D:/data-shared/polygons-generated-random3/img_10092.png 126.3621,164.30084,208.06656,245.73682,1 216.34918,77.367584,324.19095,186.45226,1 159.908,291.8387,286.54596,365.3822,4 152.85217,275.8114,292.3783,372.18,4 
D:/data-shared/polygons-generated-random3/img_10098.png 140.12416,288.0108,257.3365,343.36307,0 121.40274,48.148003,275.84064,205.66377,0 258.4757,235.85123,353.32047,332.06302,1 32.07332,218.31345,211.88707,287.7775,4 268.06973,49.971096,371.69775,143.92712,4 
D:/data-shared/polygons-generated-random3/img_10110.png 113.10409,45.866905,211.12312,170.93369,0 204.03224,198.33395,342.63004,334.53806,2 271.16553,52.8708,403.40912,197.00237,4 49.818268,173.93759,249.26991,271.14825,4 
D:/data-shared/polygons-generated-random3/img_10112.png 254.40553,58.58087,334.33536,138.53888,2 31.955006,101.635796,271.4154,382.3666,3 50.39941,123.0586,251.8616,348.93835,3 234.52522,191.21616,403.37048,303.21173,4 
D:/data-shared/polygons-generated-random3/img_10113.png 112.52778,216.56029,278.6881,343.80743,0 220.90074,74.15313,415.23517,270.21808,3 90.59796,17.049582,238.16641,186.41927,3 277.7093,276.06546,412.09573,352.23218,4 
D:/data-shared/polygons-generated-random3/img_1012.png 158.59056,192.83344,296.59833,332.4403,2 68.16929,143.96678,173.7623,247.94545,2 92.50299,3.6881618,317.39758,224.86833,3 299.4961,198.54643,399.46722,322.90936,4 
D:/data-shared/polygons-generated-random3/img_10123.png 158.24312,261.97342,251.5807,356.3843,1 89.3147,107.145386,237.10635,254.58582,1 254.9152,190.10422,358.60492,292.81744,2 237.87314,28.35735,400.50253,183.5381,3 
D:/data-shared/polygons-generated-random3/img_10128.png 192.37071,161.80174,340.20135,308.1046,2 159.46527,71.767334,331.3488,176.53404,4 41.309406,216.47948,179.19724,346.9964,4 
D:/data-shared/polygons-generated-random3/img_10136.png 236.49217,154.43208,337.18228,295.193,0 122.61413,93.574875,203.48114,174.29228,2 82.3363,209.92802,169.61157,296.10526,2 139.49733,309.79306,297.4983,371.86496,4 
D:/data-shared/polygons-generated-random3/img_10140.png 161.87123,200.91815,269.7934,307.02255,2 
D:/data-shared/polygons-generated-random3/img_10142.png 239.56134,48.022995,393.90112,186.0076,0 184.74115,177.73021,276.34155,269.63843,2 70.13236,175.90927,201.6418,306.3452,2 47.540623,1.3980031,200.58904,178.35922,3 
D:/data-shared/polygons-generated-random3/img_10144.png 136.54504,165.08182,275.13986,304.6874,0 52.3774,247.55914,148.82207,344.1947,2 189.25151,60.387245,290.95956,161.33588,2 283.2578,72.84641,388.5351,158.59668,4 
D:/data-shared/polygons-generated-random3/img_10149.png 73.6637,248.21352,154.70372,329.73334,1 242.04117,265.17892,369.79443,343.0656,4 169.00714,87.97415,341.14233,154.48842,4 
D:/data-shared/polygons-generated-random3/img_10150.png 52.05352,57.373997,152.5547,158.57796,1 137.83284,66.787025,272.56946,200.45357,2 
D:/data-shared/polygons-generated-random3/img_10160.png 183.70453,223.4202,282.59442,322.4315,1 217.51425,145.7108,355.86557,225.45169,4 
D:/data-shared/polygons-generated-random3/img_10165.png 188.44589,248.65341,306.7678,333.72186,0 54.63062,113.56133,143.57713,204.29706,1 202.60779,34.80513,369.42175,201.1995,3 16.714327,206.91797,187.32036,400.91406,3 137.89996,131.3459,258.89243,250.1726,4 
D:/data-shared/polygons-generated-random3/img_10169.png 193.37505,82.94065,320.90543,198.46115,0 73.229225,116.686844,157.29898,201.42664,1 114.80911,214.74808,219.3535,321.4774,1 192.0843,90.5514,311.90353,188.961,4 
D:/data-shared/polygons-generated-random3/img_10172.png 181.52997,178.55101,272.8113,271.05014,1 240.33368,239.42293,333.97708,332.48056,2 110.24188,235.18195,189.65344,314.4199,2 160.47672,14.210165,310.1296,155.80037,3 289.39667,163.15245,406.91693,258.11957,4 
D:/data-shared/polygons-generated-random3/img_10176.png 221.35217,248.8868,327.15524,355.13556,1 112.201294,100.35514,223.77112,213.66449,1 218.68549,6.4953384,389.35358,168.1609,3 245.04195,175.88997,355.31647,249.39792,4 
D:/data-shared/polygons-generated-random3/img_10178.png 88.79978,234.94179,179.46147,293.2576,0 232.74622,125.35332,347.78775,242.60112,1 28.62408,58.97912,197.57837,218.46657,3 297.9498,72.31266,412.1185,173.83861,4 154.65742,9.983841,260.7066,119.36247,4 
D:/data-shared/polygons-generated-random3/img_10180.png 83.76497,51.01789,176.59314,144.69495,1 159.85735,148.47493,285.62717,272.49222,2 242.18463,63.939724,418.17398,194.96288,4 196.17361,275.90607,300.55493,351.35495,4 
D:/data-shared/polygons-generated-random3/img_10183.png 60.13839,244.85992,160.51814,312.04535,0 210.80931,180.74094,295.27454,265.43195,1 53.12909,11.287218,251.10056,214.70312,3 213.16754,37.27818,409.2218,236.8897,3 294.12198,275.67352,408.56442,385.2788,4 
D:/data-shared/polygons-generated-random3/img_10189.png 188.17168,80.772446,311.02325,202.37181,2 35.238747,222.69664,214.72765,401.51627,3 30.984161,15.404534,221.14233,206.27417,3 216.43048,231.20865,365.6748,310.3845,4 209.94556,220.5628,382.60516,320.08057,4 
D:/data-shared/polygons-generated-random3/img_10194.png 127.24269,94.55035,217.85992,185.04889,2 122.00719,240.47778,280.64886,363.06262,4 238.72499,117.65853,375.6718,192.54582,4 181.29428,197.50247,320.85083,271.9855,4 189.91727,32.021072,360.48306,121.91394,4 
D:/data-shared/polygons-generated-random3/img_10200.png 216.21335,168.97232,301.19022,254.12564,2 133.71536,214.0098,234.26187,314.33084,2 178.28653,50.74428,340.95236,135.73483,4 108.34138,57.05896,233.5479,243.35776,4 248.62485,288.58926,392.60056,397.1624,4 
D:/data-shared/polygons-generated-random3/img_10201.png 145.63406,85.96032,280.94766,221.58125,1 178.84045,241.17635,271.3808,334.85715,1 267.79184,236.76257,396.03067,365.08035,4 
D:/data-shared/polygons-generated-random3/img_10203.png 217.97252,213.25888,341.0978,336.33102,1 260.53043,112.343376,353.63992,205.66597,2 98.0468,89.21244,279.86743,188.74855,4 73.968445,132.68434,200.72047,301.77777,4 
D:/data-shared/polygons-generated-random3/img_10205.png 204.02138,198.64139,308.10193,305.26678,1 259.72458,117.37158,406.77487,219.46954,4 89.596214,234.19197,228.56189,384.8146,4 145.48412,14.142399,298.7042,140.2413,4 55.11216,182.6696,237.09094,229.65771,4 
D:/data-shared/polygons-generated-random3/img_10213.png 166.60637,152.1778,314.80222,297.90103,2 19.635775,66.5139,174.4228,211.03616,3 
D:/data-shared/polygons-generated-random3/img_10220.png 225.47661,119.75554,335.65808,271.83014,0 77.80069,182.13884,178.15118,283.61377,1 163.03964,251.52618,255.87541,343.91284,2 89.74558,80.6776,182.1599,172.98953,2 267.33606,273.64966,414.96777,360.45782,4 
D:/data-shared/polygons-generated-random3/img_10222.png 62.775692,273.31827,155.21217,364.91943,2 96.47943,41.1813,266.15863,235.17189,3 205.27347,209.27203,383.7608,365.26736,4 
D:/data-shared/polygons-generated-random3/img_10225.png 161.283,173.4483,285.14062,296.59177,1 158.43588,46.79502,252.1792,139.57442,2 52.683304,239.00027,198.5731,353.41257,4 280.23734,252.0847,410.50894,327.57013,4 234.93834,85.96002,410.1686,148.58131,4 35.54535,119.4032,241.5004,227.38475,4 40.558983,102.69912,256.48187,245.97037,4 
D:/data-shared/polygons-generated-random3/img_10227.png 84.48036,223.76021,237.06192,280.10385,0 158.02681,97.37047,272.49667,212.45085,1 237.53343,230.59769,330.56186,323.58347,1 51.09716,100.14391,146.09013,194.83621,2 233.65414,19.431675,410.8443,157.1145,4 
D:/data-shared/polygons-generated-random3/img_10231.png 147.48805,143.83766,301.5792,311.83185,0 254.44156,260.73544,343.34866,348.93652,2 62.156597,77.83825,160.773,176.47327,2 281.77368,171.4619,415.33344,280.33533,4 234.98952,89.678024,386.00302,143.29906,4 
D:/data-shared/polygons-generated-random3/img_10234.png 66.30206,232.02267,191.00499,281.87488,0 164.3622,287.76538,249.99324,374.21445,1 55.080696,97.54911,160.99434,206.42358,1 283.9068,200.66293,366.16147,281.71326,2 150.7438,110.762985,268.98145,228.02438,2 299.7823,77.377014,415.154,167.58372,4 
D:/data-shared/polygons-generated-random3/img_10238.png 133.48645,139.45738,276.5238,280.2696,1 74.1705,227.001,163.18744,316.24033,2 217.91342,69.49666,384.9119,181.38147,4 271.49908,162.57144,414.6923,298.2379,4 
D:/data-shared/polygons-generated-random3/img_10242.png 88.39658,94.34393,235.35399,196.85349,0 129.51596,226.72556,319.83115,274.8234,4 264.07913,54.729977,417.3653,215.08969,4 23.264725,223.07837,180.7678,365.22287,4 94.12227,100.81669,217.74876,186.47163,4 255.3511,80.51081,408.26376,194.1486,4 
D:/data-shared/polygons-generated-random3/img_10243.png 87.081696,8.037881,222.75363,202.63148,0 244.62444,258.55652,361.6108,335.41354,0 231.31192,52.56777,325.00406,147.3715,1 62.456078,246.60999,149.88275,333.91177,1 
D:/data-shared/polygons-generated-random3/img_10246.png 132.58334,77.54637,229.20082,174.46536,1 152.84645,149.6456,382.48795,378.5709,3 
D:/data-shared/polygons-generated-random3/img_10248.png 186.02536,273.27313,270.10358,356.8918,1 113.41276,83.97425,266.96484,235.3989,1 281.2336,73.26176,366.4513,158.20241,2 51.684887,216.25136,192.02087,345.73444,4 240.23907,242.46944,409.49918,316.81357,4 278.43802,303.79944,408.21777,406.70035,4 
D:/data-shared/polygons-generated-random3/img_10249.png 79.244,270.0845,241.6825,345.16754,0 257.97827,259.79987,380.82184,308.88168,0 156.48969,68.180016,246.69269,157.23119,2 184.51886,192.10664,370.9132,240.99187,4 
D:/data-shared/polygons-generated-random3/img_1025.png 197.95236,124.6141,334.94122,255.7679,0 62.047787,217.40857,172.06644,328.70416,1 237.33081,251.87257,367.00247,370.69763,4 71.484085,80.7843,205.8909,154.14586,4 
D:/data-shared/polygons-generated-random3/img_10253.png 100.98191,146.81744,221.32205,269.03986,1 92.71407,274.14096,179.34036,359.8073,1 
D:/data-shared/polygons-generated-random3/img_10255.png 128.93718,163.36467,261.61026,295.97226,2 274.42935,287.4111,355.3531,368.40018,2 226.73991,66.3243,383.84692,211.43134,4 
D:/data-shared/polygons-generated-random3/img_1026.png 133.42023,90.02478,258.56326,215.82542,1 212.79521,247.85197,401.77466,354.39093,4 150.2954,224.77254,318.6905,297.57382,4 249.00497,92.846115,381.41678,195.30446,4 
D:/data-shared/polygons-generated-random3/img_10260.png 159.96864,135.07835,290.4803,266.84918,1 84.01506,58.81168,187.39528,161.56595,2 
D:/data-shared/polygons-generated-random3/img_10261.png 213.4687,70.528915,300.6685,159.39029,1 75.763596,180.4737,222.8349,325.4005,1 234.75806,252.25447,331.3189,347.68112,2 86.4463,88.79546,167.08221,168.26703,2 
D:/data-shared/polygons-generated-random3/img_10268.png 113.25797,141.9961,263.04926,289.20605,1 10.167067,20.017607,167.99948,200.2607,3 
D:/data-shared/polygons-generated-random3/img_10277.png 227.43538,85.4353,309.78696,165.90495,2 94.12059,157.11325,239.463,301.28262,2 
D:/data-shared/polygons-generated-random3/img_1028.png 138.11485,195.88762,237.82164,295.88297,1 156.50766,42.991127,345.53815,237.22505,3 
D:/data-shared/polygons-generated-random3/img_10282.png 169.82397,216.33698,264.83307,311.63956,1 
D:/data-shared/polygons-generated-random3/img_10284.png 218.44193,162.65837,338.49557,348.34457,0 103.4171,120.07869,216.53928,233.80775,1 131.65788,2.039352,271.94656,162.24817,3 70.31649,240.74332,214.23412,337.08597,4 307.78952,96.601524,402.9747,144.39603,4 
D:/data-shared/polygons-generated-random3/img_10285.png 133.84763,145.79617,282.46466,296.8179,0 30.694345,269.44897,186.70802,410.9768,3 32.03147,261.94177,186.151,409.31287,4 
D:/data-shared/polygons-generated-random3/img_10286.png 248.62967,50.839924,331.86792,133.22768,1 114.30205,144.61006,199.99702,231.31519,1 183.35483,153.6358,315.76956,285.64197,2 9.763643,54.463745,168.39467,116.38317,4 33.77005,248.37808,203.29445,322.73453,4 174.04333,292.389,331.4164,401.35135,4 
D:/data-shared/polygons-generated-random3/img_10292.png 243.80931,93.37673,344.3706,194.67848,1 143.8088,189.6312,226.62259,272.53152,1 74.481316,242.56216,162.60945,330.80832,2 63.613674,31.658718,240.54099,206.08507,3 176.88145,201.17987,383.28967,413.06842,3 
D:/data-shared/polygons-generated-random3/img_10299.png 125.67251,82.96199,288.07428,221.36055,0 284.4448,242.36737,365.8708,324.01257,2 270.94598,167.19989,402.1195,241.68126,4 108.94372,274.1519,249.97661,385.33292,4 
D:/data-shared/polygons-generated-random3/img_103.png 83.019135,262.88556,178.54251,328.8371,0 190.06216,254.57697,286.28598,351.5095,1 106.87207,83.512146,253.32559,228.41937,1 226.91928,2.4656305,401.1353,177.63794,3 280.518,196.97945,415.9673,301.23306,4 98.61061,81.479836,261.19952,238.5206,4 
D:/data-shared/polygons-generated-random3/img_10301.png 176.87039,119.40921,315.55,256.31235,1 58.015636,110.717766,146.1259,199.61972,2 67.741875,230.20576,152.84796,314.0031,2 
D:/data-shared/polygons-generated-random3/img_10304.png 171.63145,182.92827,288.7223,345.0119,0 43.355644,72.96992,282.09717,205.14203,4 
D:/data-shared/polygons-generated-random3/img_10312.png 99.9223,140.25877,259.4621,311.3724,0 251.19016,269.11258,337.25192,354.94067,1 276.375,90.866875,361.07593,174.45406,2 114.109634,46.20366,201.22649,132.96906,2 
D:/data-shared/polygons-generated-random3/img_10315.png 
D:/data-shared/polygons-generated-random3/img_10318.png 210.91457,139.93564,309.03104,244.56306,0 57.419765,30.618732,239.08725,213.17647,3 26.614296,194.65958,236.33737,393.30713,3 220.27257,38.481136,344.02856,140.94365,4 
D:/data-shared/polygons-generated-random3/img_10319.png 92.18749,74.47061,232.71202,257.65237,0 250.95657,116.37738,351.2424,217.70291,1 
D:/data-shared/polygons-generated-random3/img_10320.png 251.64236,213.80417,340.58264,302.3547,2 165.8725,98.41328,276.48938,207.6392,2 275.06424,129.86563,393.87955,197.73315,4 
D:/data-shared/polygons-generated-random3/img_10328.png 67.549095,79.785355,164.63113,142.13947,0 216.00368,213.52599,348.23007,344.02313,1 141.90526,108.15347,238.05246,203.63153,2 20.025114,176.94482,176.77002,357.5929,3 
D:/data-shared/polygons-generated-random3/img_10329.png 193.6106,120.55812,334.65826,211.04453,0 66.590965,133.34584,215.05411,306.124,0 72.50219,151.09508,199.4687,289.92902,0 200.79501,235.74129,372.2955,404.58856,3 
D:/data-shared/polygons-generated-random3/img_10332.png 105.654854,132.31236,211.87648,238.42293,2 224.00993,246.03893,346.58698,356.2607,4 271.65836,103.32941,406.09387,212.7603,4 83.7478,248.93053,214.18619,346.2791,4 262.70316,87.99357,425.80377,227.54019,4 
D:/data-shared/polygons-generated-random3/img_10333.png 243.86327,33.33998,356.41156,180.44083,0 104.90581,79.73294,229.46594,203.84293,1 247.57652,186.07211,340.77286,279.70074,1 173.27861,263.1986,258.65073,348.6361,2 257.28842,298.34534,375.7937,354.48657,4 
D:/data-shared/polygons-generated-random3/img_10334.png 54.312817,131.22763,291.55032,365.03522,3 53.70414,51.383137,207.8477,160.37172,4 206.33348,12.59623,370.60428,185.63268,4 61.572712,60.81761,186.38898,150.35475,4 196.37022,34.84141,363.5653,161.90372,4 
D:/data-shared/polygons-generated-random3/img_10336.png 91.96642,249.45602,199.51715,355.73355,2 140.57597,73.382355,238.75931,171.33054,2 198.70378,215.64095,363.74112,376.36627,3 270.51608,76.407326,414.24716,206.08281,4 
D:/data-shared/polygons-generated-random3/img_1034.png 112.39433,158.80025,213.83846,261.4509,1 148.71138,255.84898,313.76447,358.4573,4 94.96667,7.4702306,253.67567,147.9223,4 201.2004,70.20381,349.2454,175.1453,4 
D:/data-shared/polygons-generated-random3/img_10341.png 134.88509,179.80734,306.6248,281.07425,0 7.6449833,218.47343,194.63623,407.529,3 121.682144,18.072794,291.07684,175.46313,3 300.11902,243.27618,406.588,378.02536,4 298.66937,261.6791,397.19922,363.1267,4 
D:/data-shared/polygons-generated-random3/img_10343.png 110.27994,113.36029,251.17534,268.08554,0 250.05612,129.38197,352.27963,230.50412,1 
D:/data-shared/polygons-generated-random3/img_10344.png 123.160065,195.44807,207.06375,278.6093,1 249.0949,185.12129,412.2928,319.82242,4 101.09323,291.4834,239.91751,381.522,4 173.71243,51.27963,307.31577,166.51761,4 
D:/data-shared/polygons-generated-random3/img_10347.png 255.19843,134.15645,347.38306,225.92343,1 222.36539,247.45377,318.95554,343.7003,2 103.09628,146.3545,230.09314,272.23196,2 13.758818,22.490818,198.59074,209.75687,3 
D:/data-shared/polygons-generated-random3/img_10348.png 182.11766,142.8246,282.28033,242.99393,1 78.042114,201.52992,160.1177,284.46564,2 144.95515,4.542802,303.10165,153.33939,3 144.10332,238.44637,363.63452,327.34137,4 285.69946,75.15786,395.65536,146.31506,4 83.41801,101.600555,192.11252,180.05107,4 
D:/data-shared/polygons-generated-random3/img_10350.png 132.42924,234.302,245.83377,349.56418,1 94.54739,71.59297,206.92114,197.27962,4 186.82326,30.938457,400.14642,229.00618,4 
D:/data-shared/polygons-generated-random3/img_10353.png 250.57642,136.39471,357.53644,200.0947,0 21.108921,159.4774,245.78883,424.65195,3 226.43205,240.6748,387.51013,401.16507,3 
D:/data-shared/polygons-generated-random3/img_10356.png 162.39081,133.30101,301.53174,270.1964,1 247.84111,275.83176,334.359,362.16464,2 57.272743,192.57976,161.23987,295.66797,2 
D:/data-shared/polygons-generated-random3/img_10357.png 265.17526,84.62874,351.11133,169.5571,2 154.78906,131.10005,297.71957,272.18445,2 
D:/data-shared/polygons-generated-random3/img_10359.png 211.265,91.2249,338.6591,199.52675,0 154.8351,191.00414,291.08884,326.87247,2 9.501072,38.39336,211.27805,233.6927,3 269.2532,259.43536,376.83594,289.79193,4 
D:/data-shared/polygons-generated-random3/img_10367.png 256.98962,15.924596,360.84,168.94409,0 89.92876,175.1204,250.05493,288.5326,0 245.11787,182.5262,403.23004,359.97076,3 101.681854,69.94683,232.86888,166.02878,4 
D:/data-shared/polygons-generated-random3/img_10368.png 251.81287,259.845,342.39685,350.08508,1 166.79515,75.704636,372.82462,271.67255,3 9.498505,204.99289,162.59894,350.5637,3 
D:/data-shared/polygons-generated-random3/img_10376.png 92.86161,207.9197,249.63408,292.0796,0 182.6213,27.525013,286.45096,136.49716,0 62.573708,91.95737,176.16646,206.49167,1 257.5301,130.64508,342.54218,215.5534,1 202.78201,265.90643,387.64517,360.9797,4 
D:/data-shared/polygons-generated-random3/img_10378.png 197.50806,20.018747,313.08466,170.6536,0 148.13907,181.3993,322.17276,336.2718,0 157.83058,194.3104,306.15442,317.646,0 42.58812,116.20823,125.561554,197.9974,1 65.346825,282.6485,150.47926,366.67554,2 
D:/data-shared/polygons-generated-random3/img_10379.png 68.008064,178.36719,157.69212,269.71915,1 157.85675,191.85403,302.09027,335.85846,1 48.06117,44.66778,194.86247,173.57353,4 221.73756,103.86196,404.43225,221.9099,4 
D:/data-shared/polygons-generated-random3/img_10381.png 73.4912,117.68143,211.31833,253.50314,2 189.898,80.67697,354.15808,242.85776,3 47.506256,259.753,221.86264,369.22656,4 290.9503,173.40756,403.46423,302.48993,4 
D:/data-shared/polygons-generated-random3/img_10383.png 134.73265,109.45498,279.51038,254.26747,1 278.84613,49.720573,360.59293,131.25998,2 220.64227,234.03732,341.39264,352.8577,2 51.064804,256.46152,214.45894,328.2927,4 
D:/data-shared/polygons-generated-random3/img_10389.png 212.45316,246.32413,325.6376,364.8436,0 151.87115,96.99536,288.62396,233.11823,2 275.5239,168.504,394.9712,239.81668,4 92.040695,100.76952,209.25056,206.43243,4 67.68464,257.3769,200.49263,379.3949,4 226.93144,16.788237,377.6194,131.08345,4 219.54222,-1.0085087,390.4183,143.64029,4 
D:/data-shared/polygons-generated-random3/img_10398.png 73.83025,168.10883,180.40392,332.818,0 183.83955,55.746895,292.6665,164.32143,1 187.241,171.82387,305.17935,290.27768,1 
D:/data-shared/polygons-generated-random3/img_104.png 194.84593,88.48649,329.30658,292.7186,0 111.80231,59.341003,202.3607,150.51764,1 27.573315,161.99829,166.98631,326.34293,3 
D:/data-shared/polygons-generated-random3/img_10405.png 30.163368,223.2145,181.80933,313.3153,0 192.23244,223.91354,308.08746,339.79898,1 171.30705,60.326965,276.74667,165.65152,1 120.00581,171.34952,275.32993,231.07695,4 
D:/data-shared/polygons-generated-random3/img_10406.png 205.06708,230.07881,309.16028,335.5281,1 191.8447,105.98668,280.46457,193.73167,2 
D:/data-shared/polygons-generated-random3/img_10410.png 244.57623,123.03274,344.8274,222.04327,2 92.69059,87.75815,233.7614,226.37245,2 
D:/data-shared/polygons-generated-random3/img_10411.png 63.33973,120.29346,162.98196,221.28159,1 180.37622,164.80026,330.03256,312.77875,1 184.90076,70.76785,289.3548,145.42303,4 31.724043,258.27017,197.131,353.99988,4 
D:/data-shared/polygons-generated-random3/img_10414.png 160.95789,201.35526,294.18674,288.84018,0 263.11804,260.40314,357.9879,355.1423,2 57.21279,251.6214,155.1506,348.5786,2 224.77522,20.029558,391.40814,179.6847,3 
D:/data-shared/polygons-generated-random3/img_1042.png 23.380539,169.16159,224.81712,372.70773,3 
D:/data-shared/polygons-generated-random3/img_10421.png 84.29895,4.9922333,194.11307,160.94559,0 209.54015,53.445698,379.38925,206.51976,4 97.03235,230.62483,226.13066,345.71066,4 191.35045,127.180374,396.5103,316.11896,4 204.27423,75.41493,371.55127,184.1618,4 
D:/data-shared/polygons-generated-random3/img_10425.png 89.83135,100.837654,223.88644,212.71793,0 246.07071,201.32744,344.4989,300.4269,1 64.9441,244.16237,179.53569,357.72275,2 229.48691,67.26199,392.9404,152.2276,4 
D:/data-shared/polygons-generated-random3/img_10431.png 137.63673,194.06483,256.7873,342.82623,0 286.3706,43.36698,368.8736,124.787186,1 164.98978,102.875786,284.6919,188.94658,4 160.37622,89.12828,303.82654,201.72882,4 
D:/data-shared/polygons-generated-random3/img_10434.png 69.09584,74.58475,179.66042,183.6458,2 137.83983,138.94894,274.29367,271.69427,2 237.66354,64.03808,344.89944,209.62762,4 255.46663,259.17215,398.12094,356.57797,4 
D:/data-shared/polygons-generated-random3/img_10437.png 233.62541,1.1081061,344.80502,145.06712,0 179.97658,157.58382,349.17505,238.21909,0 66.0926,214.41394,186.27034,335.14044,1 48.29739,49.77442,131.66849,134.3535,1 207.50775,237.34949,295.92307,325.47495,2 
D:/data-shared/polygons-generated-random3/img_10438.png 277.14734,246.34207,364.62714,335.39752,1 145.25302,118.13308,272.66864,244.62201,2 36.100136,57.59279,191.65997,201.56975,3 76.153366,256.17484,176.4255,352.05576,4 236.74345,65.76045,392.59607,194.19772,4 
D:/data-shared/polygons-generated-random3/img_1044.png 135.01723,83.42343,247.03865,190.99136,0 145.90137,195.31271,298.7204,273.6988,0 48.849335,280.45837,129.15575,361.15787,1 51.099747,181.98428,142.9458,274.09006,1 258.8653,258.67258,352.60486,350.64847,2 289.33417,63.102734,416.69025,126.962166,4 
D:/data-shared/polygons-generated-random3/img_10444.png 100.13446,101.28296,195.96358,198.4523,1 276.04785,140.84827,362.471,228.18,1 27.06531,212.17812,183.10544,389.9592,3 272.008,24.391922,418.13083,154.87282,4 187.193,257.98746,331.6943,371.3639,4 
D:/data-shared/polygons-generated-random3/img_10449.png 97.981995,195.2435,200.6034,299.96515,1 198.35545,201.052,342.1372,343.11273,1 21.91299,30.62025,203.8751,209.58516,3 195.13756,83.03529,378.56857,207.10738,4 
D:/data-shared/polygons-generated-random3/img_10451.png 101.719765,83.00931,198.72653,180.91055,1 164.57373,201.66959,251.4751,288.09116,1 244.42955,70.66387,389.89175,239.31375,3 256.27716,248.52078,405.04816,341.4228,4 97.9121,233.40652,218.54913,338.7959,4 
D:/data-shared/polygons-generated-random3/img_10452.png 217.79042,151.52185,332.43787,264.74905,2 50.99093,211.41963,200.94711,385.00357,3 117.39829,12.04808,282.79263,165.43951,3 159.38934,170.99284,260.4686,219.79953,4 
D:/data-shared/polygons-generated-random3/img_10453.png 62.867317,44.4229,219.07892,225.83076,3 196.86934,49.969353,379.19055,233.68332,3 
D:/data-shared/polygons-generated-random3/img_10455.png 8.96542,42.282158,231.423,265.18256,3 126.23358,192.21283,307.84964,364.19763,3 245.5377,61.812542,388.56946,172.4625,4 251.13113,74.850815,372.62637,165.35907,4 
D:/data-shared/polygons-generated-random3/img_10460.png 221.66348,143.21906,376.47647,263.60327,0 93.673935,261.8508,225.08005,376.51105,4 34.323505,194.75859,175.56903,288.66736,4 122.016754,17.034332,256.4316,151.58176,4 
D:/data-shared/polygons-generated-random3/img_10467.png 191.8833,20.373981,325.18958,228.89827,0 168.77179,244.381,259.79468,335.54822,1 76.080055,65.80159,180.06042,171.87175,1 27.03253,203.79909,191.56252,314.28604,4 
D:/data-shared/polygons-generated-random3/img_10470.png 242.90631,168.38318,335.77072,310.89288,0 145.79239,149.82654,242.51506,248.1243,1 65.43739,202.29092,146.57072,283.83432,1 
D:/data-shared/polygons-generated-random3/img_10472.png 229.13904,89.84435,321.2453,182.2216,1 158.35335,273.35785,242.97246,358.30585,2 69.02302,121.957,178.77087,230.16257,2 
D:/data-shared/polygons-generated-random3/img_10474.png 251.96642,56.93447,354.08524,158.78561,2 82.98801,186.78577,227.15807,329.04437,2 86.759125,22.803726,238.51752,156.10007,4 282.78464,223.63431,402.74933,278.682,4 255.70618,164.54395,357.35565,191.60992,4 86.82653,39.356144,224.98221,140.47438,4 
D:/data-shared/polygons-generated-random3/img_10478.png 120.44482,91.703415,241.94617,214.05034,1 68.68116,190.69606,171.21031,293.1475,2 241.35162,89.96339,353.2682,200.23863,2 158.4444,246.45493,350.6177,375.81396,4 157.17741,262.28055,338.50928,359.1338,4 
D:/data-shared/polygons-generated-random3/img_10486.png 143.84181,162.53404,282.66068,301.40143,1 183.02986,41.531124,301.61896,112.31955,4 235.89058,135.31728,405.01,196.96649,4 
D:/data-shared/polygons-generated-random3/img_10487.png 190.84023,86.566315,317.51157,213.01485,1 23.785103,164.07042,212.69191,381.87936,3 
D:/data-shared/polygons-generated-random3/img_10488.png 112.90098,229.14816,259.76373,334.84686,0 244.87634,71.139275,347.4171,174.60059,1 116.228584,92.67421,245.78014,165.01053,4 
D:/data-shared/polygons-generated-random3/img_10492.png 193.64348,212.3996,341.40598,284.65942,0 281.51675,-3.3381047,383.04727,148.137,0 85.25429,242.56346,186.94498,345.5962,1 156.97565,82.6443,239.49593,165.31859,1 
D:/data-shared/polygons-generated-random3/img_105.png 179.44775,169.33751,278.66385,268.6159,2 224.8339,63.60316,404.30365,185.05457,4 82.339676,242.711,242.14142,319.00854,4 
D:/data-shared/polygons-generated-random3/img_10502.png 115.97446,286.43744,200.38162,371.3685,1 146.27415,101.709656,296.2061,249.83453,1 164.70868,262.9176,273.0161,294.363,4 170.09103,267.78903,259.5231,294.9112,4 
D:/data-shared/polygons-generated-random3/img_10508.png 106.057434,302.0522,216.37228,358.03513,0 234.19687,107.931656,341.83432,217.68712,1 269.59964,263.9078,363.91925,357.79514,2 94.78585,158.95103,220.90146,282.5135,2 
D:/data-shared/polygons-generated-random3/img_10511.png 86.49757,154.78632,172.8244,240.30893,2 209.91072,176.15318,373.36743,361.93015,3 180.64864,29.165337,339.84485,174.00827,4 
D:/data-shared/polygons-generated-random3/img_10512.png 261.14133,42.02204,353.7265,170.55011,0 161.8025,190.38548,278.73956,244.97081,0 72.53457,203.87994,266.5705,387.5833,3 
D:/data-shared/polygons-generated-random3/img_10514.png 117.50122,131.26064,215.1041,228.6075,2 224.91559,240.89757,334.70544,350.54202,2 170.15987,41.034164,406.05765,261.3272,3 
D:/data-shared/polygons-generated-random3/img_10521.png 79.15662,246.5031,174.89514,343.6064,1 125.62986,87.6825,234.02777,195.08632,2 158.5501,161.0208,389.52975,394.33362,3 181.1518,4.45828,333.15363,146.61649,3 
D:/data-shared/polygons-generated-random3/img_10532.png 76.86453,193.72754,198.44785,313.52866,2 174.96036,79.99719,365.2434,291.0724,4 155.89557,63.247116,398.01416,309.07388,4 
D:/data-shared/polygons-generated-random3/img_10537.png 220.33781,84.20838,341.35388,184.80107,0 65.127,142.88336,173.28824,250.95813,2 225.8689,79.77657,342.20288,188.90906,4 
D:/data-shared/polygons-generated-random3/img_10568.png 105.96486,80.15073,227.71011,160.13301,0 174.94745,204.18872,339.6493,302.1575,0 219.9793,83.578674,327.2776,190.05164,2 
D:/data-shared/polygons-generated-random3/img_10571.png 260.05203,102.06047,364.42435,248.20456,0 61.69204,151.41786,227.11319,257.94193,0 74.563484,157.26357,205.4328,250.38454,0 128.85933,283.5424,213.3266,368.30487,1 48.28259,59.51858,138.18542,150.39165,1 43.0149,233.17993,123.57764,312.97058,2 
D:/data-shared/polygons-generated-random3/img_10576.png 225.05408,171.1079,331.95908,277.46085,2 36.194256,171.45003,225.50693,366.43018,3 207.52138,15.790576,368.88315,170.72188,3 220.07884,280.4238,386.68042,396.4902,4 
D:/data-shared/polygons-generated-random3/img_10579.png 46.66682,184.06941,192.74213,270.06482,4 230.03172,36.102913,395.7739,105.34046,4 209.25833,256.82175,330.8146,360.28586,4 137.20453,76.90666,346.09787,221.89233,4 
D:/data-shared/polygons-generated-random3/img_10581.png 192.76138,118.18808,310.94452,234.97035,2 74.31382,214.64218,261.9961,403.47574,3 78.68903,7.555298,254.07094,172.8977,3 
D:/data-shared/polygons-generated-random3/img_10591.png 231.7732,147.38809,332.23795,248.202,1 119.1946,243.6376,213.04535,338.34534,1 60.730724,117.949196,249.7362,221.76176,4 198.49136,65.98047,307.15588,153.12659,4 
D:/data-shared/polygons-generated-random3/img_10592.png 263.16116,65.40184,399.3968,169.00124,0 30.742735,43.33458,175.34511,210.95236,3 122.36992,181.87656,309.74112,360.0931,3 266.4881,59.02248,405.63394,175.6121,4 
D:/data-shared/polygons-generated-random3/img_10593.png 194.63853,140.59737,331.71933,277.3098,1 77.16264,33.919407,256.884,214.31032,3 53.19824,232.31557,215.07675,337.6649,4 236.78381,26.909307,384.59174,146.02295,4 
D:/data-shared/polygons-generated-random3/img_10598.png 110.53288,181.17812,259.2397,330.61203,2 207.47017,67.31485,396.63315,245.86174,3 248.69267,240.10364,401.43295,328.61426,4 104.28503,72.79428,238.94717,162.76807,4 
D:/data-shared/polygons-generated-random3/img_1061.png 127.422356,113.988335,288.03336,288.0591,0 42.379566,220.30577,125.93714,303.3536,1 
D:/data-shared/polygons-generated-random3/img_10619.png 154.4732,142.39095,411.74097,399.01266,3 140.25699,65.50429,383.26947,144.81154,4 51.507748,81.95175,189.85095,174.09418,4 
D:/data-shared/polygons-generated-random3/img_10622.png 38.499794,132.84221,129.0602,209.33638,0 207.31992,-1.3245401,337.49554,213.55627,0 129.71457,249.35428,210.57785,329.9534,1 
D:/data-shared/polygons-generated-random3/img_10629.png 64.99186,135.93138,191.51878,263.7179,2 224.3522,263.16095,407.29886,399.022,4 239.53806,45.024334,404.342,159.5208,4 257.3505,109.40624,409.5346,258.9259,4 94.94045,45.693043,242.10234,140.45374,4 264.25464,126.79834,391.4823,242.18153,4 
D:/data-shared/polygons-generated-random3/img_10631.png 176.05913,102.844284,270.15274,197.20755,1 33.706444,209.43117,209.25153,316.99335,4 180.51599,306.24762,316.65527,402.14508,4 249.58905,212.91887,389.82288,312.35474,4 280.72403,72.478264,413.43924,184.10323,4 
D:/data-shared/polygons-generated-random3/img_10633.png 140.8461,32.408237,286.0049,171.42119,0 86.26661,236.10298,177.79968,327.8058,1 274.13947,221.81761,355.3269,303.10352,2 265.5163,81.66082,417.62613,210.14613,4 179.59781,174.37302,305.21506,239.71185,4 
D:/data-shared/polygons-generated-random3/img_10634.png 219.37927,142.58403,322.71405,247.21074,1 55.41374,190.31114,151.99731,286.5592,2 140.24449,276.5628,233.08566,368.60956,2 94.67031,24.017906,251.61867,169.2979,3 248.21402,254.7016,373.3776,355.5338,4 
D:/data-shared/polygons-generated-random3/img_1064.png 106.97713,43.594276,237.5893,202.52672,0 144.13672,276.3454,248.1154,328.18488,0 259.15906,260.34644,347.34927,347.79504,2 300.77087,66.8912,414.52872,157.52882,4 243.95987,192.81683,393.16052,255.38533,4 88.16809,225.71396,221.18864,314.79855,4 
D:/data-shared/polygons-generated-random3/img_10640.png 164.76323,70.95788,335.58957,231.81094,3 213.37733,228.25427,406.8226,368.69766,4 
D:/data-shared/polygons-generated-random3/img_10653.png 182.41124,226.0828,345.08542,323.15607,0 208.6306,96.12454,411.12573,189.0574,4 
D:/data-shared/polygons-generated-random3/img_10659.png 56.065872,69.70581,138.3475,152.36792,1 136.3308,92.37863,277.89914,233.3982,1 47.58076,224.4242,236.73001,348.04846,4 224.27754,227.41466,410.9893,360.1269,4 234.87975,237.20216,388.96817,349.69028,4 
D:/data-shared/polygons-generated-random3/img_1066.png 32.694298,3.2754774,324.4435,294.8864,3 
D:/data-shared/polygons-generated-random3/img_10662.png 163.54515,180.44409,278.65488,295.3785,1 167.85854,5.910226,388.17096,228.38213,3 23.850779,225.11244,202.28024,408.63562,3 
D:/data-shared/polygons-generated-random3/img_10663.png 220.57089,295.42456,331.12265,343.12976,0 102.52851,51.002476,261.79135,272.6825,0 216.47218,291.31702,334.23276,356.68845,0 
D:/data-shared/polygons-generated-random3/img_10665.png 214.64053,109.32253,346.05795,240.27509,1 10.827031,171.35458,226.15097,375.3236,3 130.63672,95.84944,248.4642,154.86563,4 
D:/data-shared/polygons-generated-random3/img_10666.png 9.323462,7.7599044,181.62482,168.8972,3 140.26965,173.69817,292.38464,304.1194,4 
D:/data-shared/polygons-generated-random3/img_10669.png 259.91492,120.979126,347.9837,208.94913,1 130.33232,160.20212,229.78734,261.43903,1 128.39175,271.07217,260.90765,384.53845,4 134.1589,68.69294,308.51395,175.7242,4 234.49301,217.23175,424.758,298.1647,4 
D:/data-shared/polygons-generated-random3/img_1067.png 77.305885,143.50447,202.74663,268.25677,1 254.98148,137.35631,347.28894,230.57343,1 265.79608,230.25433,358.11,321.9635,2 
D:/data-shared/polygons-generated-random3/img_10670.png 48.05036,61.764442,183.90823,182.73872,0 208.50868,141.97958,327.5841,261.7149,1 107.32907,204.8102,201.94171,298.449,2 
D:/data-shared/polygons-generated-random3/img_10671.png 48.409763,161.16739,188.39874,279.7068,4 205.0606,91.09255,352.44894,155.83315,4 
D:/data-shared/polygons-generated-random3/img_10675.png 230.46416,247.67183,329.92587,348.07376,1 47.391487,110.16772,128.67998,191.72937,1 
D:/data-shared/polygons-generated-random3/img_10676.png 9.839611,99.143074,301.2622,371.14377,3 273.2582,71.946144,386.1181,152.18126,4 29.357105,15.850817,179.98723,126.06143,4 
D:/data-shared/polygons-generated-random3/img_10679.png 203.88953,175.71057,329.1454,299.44244,2 85.28972,118.92001,221.17844,254.71416,2 153.23996,16.907143,362.65738,158.07143,4 176.56737,12.668974,403.0532,167.72244,4 
D:/data-shared/polygons-generated-random3/img_10680.png 233.47624,158.04399,324.795,250.17616,1 90.55658,229.1609,174.62668,312.22583,2 80.88414,110.343475,174.46616,203.08197,2 170.67415,56.590298,363.68103,179.20381,4 
D:/data-shared/polygons-generated-random3/img_10684.png 167.62775,252.07867,252.54971,338.07742,1 88.73424,117.0024,188.04332,216.30809,1 246.4607,144.04422,357.86914,255.79225,2 174.75815,32.276424,347.4884,199.8677,3 
D:/data-shared/polygons-generated-random3/img_10687.png 106.32706,251.75964,208.06955,354.41644,1 169.49515,101.47229,305.14584,236.27682,1 30.347952,14.77836,220.07883,204.88072,3 
D:/data-shared/polygons-generated-random3/img_10694.png 104.71191,51.703804,232.5779,274.4121,0 236.36029,126.45253,387.80505,269.47354,3 85.02643,302.82938,239.75479,378.76654,4 
D:/data-shared/polygons-generated-random3/img_107.png 76.837746,169.29916,192.93929,286.59717,1 180.54007,118.13663,268.94565,205.17886,2 95.66121,292.37582,250.06163,398.38574,4 255.86926,220.54091,380.94556,339.84338,4 32.208923,94.12699,201.7691,136.31708,4 
D:/data-shared/polygons-generated-random3/img_10704.png 241.88736,69.63033,349.00635,213.0982,0 231.14217,57.589706,368.8584,224.32759,0 106.653206,113.46525,208.50392,214.14746,2 96.78371,231.66245,209.32953,344.21234,2 
D:/data-shared/polygons-generated-random3/img_10706.png 166.87082,196.98451,288.34473,310.02228,0 175.40094,203.79019,278.70395,292.20822,0 37.00767,22.246695,197.12671,206.16945,3 234.12457,105.1949,410.19318,192.26897,4 
D:/data-shared/polygons-generated-random3/img_10710.png 237.23128,279.1416,325.1476,367.0371,1 82.23024,138.68112,205.84105,263.15558,1 233.77501,52.062336,322.58893,140.01366,2 204.60606,176.67146,286.74127,258.9477,2 116.05043,287.7532,223.50055,365.48175,4 
D:/data-shared/polygons-generated-random3/img_10712.png 87.48292,119.09161,172.88202,205.06973,1 268.21265,129.97444,363.85294,226.15477,1 140.92667,121.88347,294.31274,274.35492,2 9.98513,236.37105,190.29646,415.4661,3 213.7598,39.829834,358.18112,144.30096,4 94.17946,41.62083,207.21655,112.698845,4 
D:/data-shared/polygons-generated-random3/img_10713.png 265.04846,113.37622,388.51257,237.96931,0 264.4669,252.88182,365.80386,355.02087,1 65.86948,202.31194,166.10054,303.43112,1 175.6654,156.224,265.72235,244.64938,2 43.527645,47.602375,218.69553,213.18802,3 
D:/data-shared/polygons-generated-random3/img_10714.png 223.47678,85.72724,311.03204,172.44926,2 82.29582,205.13354,165.17093,287.54288,2 217.02324,186.6604,395.5834,355.2954,3 107.465576,153.82791,271.3255,246.91666,4 124.60209,73.74481,256.66446,136.61775,4 112.98646,303.98816,218.9261,338.49927,4 33.241714,127.56535,179.88217,190.00488,4 102.899475,305.451,229.84677,333.39166,4 
D:/data-shared/polygons-generated-random3/img_10715.png 89.19407,138.81824,176.99586,227.05359,1 228.86086,73.35635,347.24792,192.11205,1 221.75366,205.6499,366.0332,372.16748,3 32.151596,226.97575,176.3702,353.8773,4 107.50197,40.7982,247.95549,131.93825,4 94.57384,34.12594,274.56693,138.11456,4 
